{
  "apiVersion": "v1",
  "kind": "Pod",
  "metadata": {
    "name": "sample-$id$",
    "labels": {
      "app": "sample-$id$",
      "department": "sample-$id$-department"
    }
  },
  "spec": {
    "securityContext": {
      "fsGroup": 2000
    },
    "volumes": [
      {
        "name": "data-volume",
        "persistentVolumeClaim": {
          "claimName": "claim-$id$"
        }
      }
    ],
    "containers": [
      {
        "name": "postgres",
        "image": "postgres:11",
        "imagePullPolicy": "IfNotPresent",
        "env": [
          {
            "name": "POSTGRES_PASSWORD",
            "value": "postgres"
          },
          {
            "name": "PGDATA",
            "value": "/var/lib/postgresql/data/pgdata"
          }
        ],
        "ports": [
          {
            "containerPort": 5432,
            "protocol": "TCP"
          }
        ],
        "volumeMounts": [
          {
            "name": "data-volume",
            "mountPath": "/var/lib/postgresql/data"
          }
        ]
      }
    ]
  }
}